[gd_scene load_steps=4 format=2]

[ext_resource path="res://assets/BulletIcon.png" type="Texture" id=1]
[ext_resource path="res://Bullet.gd" type="Script" id=2]

[sub_resource type="RectangleShape2D" id=1]
extents = Vector2( 4, 2 )

[node name="Bullet" type="RigidBody2D"]
collision_layer = 2147483656
collision_mask = 2
gravity_scale = 0.0
contacts_reported = 1
contact_monitor = true
script = ExtResource( 2 )

[node name="CollisionShape2D" type="CollisionShape2D" parent="."]
position = Vector2( 4, 0 )
shape = SubResource( 1 )

[node name="Sprite" type="Sprite" parent="."]
position = Vector2( 4.00929, 0.00340755 )
rotation = 1.5708
scale = Vector2( 0.569998, 0.667059 )
texture = ExtResource( 1 )

[node name="VisibilityNotifier2D" type="VisibilityNotifier2D" parent="."]
position = Vector2( 4, -1.19209e-07 )
scale = Vector2( 0.4, 0.2 )
